{"items": [{"change_rate": "1.3000", "market": "上海银行同业拆借市场", "symbol": "Shibor人民币", "indicator": "隔夜", "report_date": "2026-06-11", "interest_rate": "1.3970%"}, {"change_rate": "0.0000", "market": "上海银行同业拆借市场", "symbol": "Shibor人民币", "indicator": "隔夜", "report_date": "2026-06-10", "interest_rate": "1.3840%"}, {"change_rate": "3.0000", "market": "上海银行同业拆借市场", "symbol": "Shibor人民币", "indicator": "隔夜", "report_date": "2026-06-09", "interest_rate": "1.3840%"}, {"change_rate": "3.0000", "market": "上海银行同业拆借市场", "symbol": "Shibor人民币", "indicator": "隔夜", "report_date": "2026-06-08", "interest_rate": "1.3540%"}, {"change_rate": "0.8000", "market": "上海银行同业拆借市场", "symbol": "Shibor人民币", "indicator": "隔夜", "report_date": "2026-06-05", "interest_rate": "1.3240%"}, {"change_rate": "0.0000", "market": "上海银行同业拆借市场", "symbol": "Shibor人民币", "indicator": "隔夜", "report_date": "2026-06-04", "interest_rate": "1.3160%"}, {"change_rate": "0.1000", "market": "上海银行同业拆借市场", "symbol": "Shibor人民币", "indicator": "隔夜", "report_date": "2026-06-03", "interest_rate": "1.3160%"}, {"change_rate": "-0.2000", "market": "上海银行同业拆借市场", "symbol": "Shibor人民币", "indicator": "隔夜", "report_date": "2026-06-02", "interest_rate": "1.3150%"}, {"change_rate": "-0.7000", "market": "上海银行同业拆借市场", "symbol": "Shibor人民币", "indicator": "隔夜", "report_date": "2026-06-01", "interest_rate": "1.3170%"}, {"change_rate": "0.7000", "market": "上海银行同业拆借市场", "symbol": "Shibor人民币", "indicator": "隔夜", "report_date": "2026-05-29", "interest_rate": "1.3240%"}, {"change_rate": "0.0000", "market": "上海银行同业拆借市场", "symbol": "Shibor人民币", "indicator": "隔夜", "report_date": "2026-05-28", "interest_rate": "1.3170%"}, {"change_rate": "-0.2000", "market": "上海银行同业拆借市场", "symbol": "Shibor人民币", "indicator": "隔夜", "report_date": "2026-05-27", "interest_rate": "1.3170%"}, {"change_rate": "-0.8000", "market": "上海银行同业拆借市场", "symbol": "Shibor人民币", "indicator": "隔夜", "report_date": "2026-05-26", "interest_rate": "1.3190%"}, {"change_rate": "0.3000", "market": "上海银行同业拆借市场", "symbol": "Shibor人民币", "indicator": "隔夜", "report_date": "2026-05-25", "interest_rate": "1.3270%"}, {"change_rate": "3.6000", "market": "上海银行同业拆借市场", "symbol": "Shibor人民币", "indicator": "隔夜", "report_date": "2026-05-22", "interest_rate": "1.3240%"}, {"change_rate": "0.2000", "market": "上海银行同业拆借市场", "symbol": "Shibor人民币", "indicator": "隔夜", "report_date": "2026-05-21", "interest_rate": "1.2880%"}, {"change_rate": "2.1000", "market": "上海银行同业拆借市场", "symbol": "Shibor人民币", "indicator": "隔夜", "report_date": "2026-05-20", "interest_rate": "1.2860%"}, {"change_rate": "-0.1000", "market": "上海银行同业拆借市场", "symbol": "Shibor人民币", "indicator": "隔夜", "report_date": "2026-05-19", "interest_rate": "1.2650%"}, {"change_rate": "-0.1000", "market": "上海银行同业拆借市场", "symbol": "Shibor人民币", "indicator": "隔夜", "report_date": "2026-05-18", "interest_rate": "1.2660%"}, {"change_rate": "0.2000", "market": "上海银行同业拆借市场", "symbol": "Shibor人民币", "indicator": "隔夜", "report_date": "2026-05-15", "interest_rate": "1.2670%"}], "total": 42, "page": 1, "page_size": 20, "total_pages": 3}