{"items": [{"change_rate": "2.8000", "market": "上海银行同业拆借市场", "symbol": "Shibor人民币", "indicator": "1周", "report_date": "2026-06-11", "interest_rate": "1.4410%"}, {"change_rate": "-0.7000", "market": "上海银行同业拆借市场", "symbol": "Shibor人民币", "indicator": "1周", "report_date": "2026-06-10", "interest_rate": "1.4130%"}, {"change_rate": "1.9000", "market": "上海银行同业拆借市场", "symbol": "Shibor人民币", "indicator": "1周", "report_date": "2026-06-09", "interest_rate": "1.4200%"}, {"change_rate": "1.9000", "market": "上海银行同业拆借市场", "symbol": "Shibor人民币", "indicator": "1周", "report_date": "2026-06-08", "interest_rate": "1.4010%"}, {"change_rate": "3.4000", "market": "上海银行同业拆借市场", "symbol": "Shibor人民币", "indicator": "1周", "report_date": "2026-06-05", "interest_rate": "1.3820%"}, {"change_rate": "0.1000", "market": "上海银行同业拆借市场", "symbol": "Shibor人民币", "indicator": "1周", "report_date": "2026-06-04", "interest_rate": "1.3480%"}, {"change_rate": "-0.6000", "market": "上海银行同业拆借市场", "symbol": "Shibor人民币", "indicator": "1周", "report_date": "2026-06-03", "interest_rate": "1.3470%"}, {"change_rate": "-2.3000", "market": "上海银行同业拆借市场", "symbol": "Shibor人民币", "indicator": "1周", "report_date": "2026-06-02", "interest_rate": "1.3530%"}, {"change_rate": "-1.1000", "market": "上海银行同业拆借市场", "symbol": "Shibor人民币", "indicator": "1周", "report_date": "2026-06-01", "interest_rate": "1.3760%"}, {"change_rate": "2.5000", "market": "上海银行同业拆借市场", "symbol": "Shibor人民币", "indicator": "1周", "report_date": "2026-05-29", "interest_rate": "1.3870%"}, {"change_rate": "-0.9000", "market": "上海银行同业拆借市场", "symbol": "Shibor人民币", "indicator": "1周", "report_date": "2026-05-28", "interest_rate": "1.3620%"}, {"change_rate": "-0.6000", "market": "上海银行同业拆借市场", "symbol": "Shibor人民币", "indicator": "1周", "report_date": "2026-05-27", "interest_rate": "1.3710%"}, {"change_rate": "-2.4000", "market": "上海银行同业拆借市场", "symbol": "Shibor人民币", "indicator": "1周", "report_date": "2026-05-26", "interest_rate": "1.3770%"}, {"change_rate": "3.6000", "market": "上海银行同业拆借市场", "symbol": "Shibor人民币", "indicator": "1周", "report_date": "2026-05-25", "interest_rate": "1.4010%"}, {"change_rate": "3.4000", "market": "上海银行同业拆借市场", "symbol": "Shibor人民币", "indicator": "1周", "report_date": "2026-05-22", "interest_rate": "1.3650%"}, {"change_rate": "-0.8000", "market": "上海银行同业拆借市场", "symbol": "Shibor人民币", "indicator": "1周", "report_date": "2026-05-21", "interest_rate": "1.3310%"}, {"change_rate": "1.9000", "market": "上海银行同业拆借市场", "symbol": "Shibor人民币", "indicator": "1周", "report_date": "2026-05-20", "interest_rate": "1.3390%"}, {"change_rate": "-0.2000", "market": "上海银行同业拆借市场", "symbol": "Shibor人民币", "indicator": "1周", "report_date": "2026-05-19", "interest_rate": "1.3200%"}, {"change_rate": "0.9000", "market": "上海银行同业拆借市场", "symbol": "Shibor人民币", "indicator": "1周", "report_date": "2026-05-18", "interest_rate": "1.3220%"}, {"change_rate": "0.8000", "market": "上海银行同业拆借市场", "symbol": "Shibor人民币", "indicator": "1周", "report_date": "2026-05-15", "interest_rate": "1.3130%"}], "total": 42, "page": 1, "page_size": 20, "total_pages": 3}